[
    {
        "_comment": "URL = http://dataservice.accuweather.com/locations/v1/cities/AU/search?apikey=guljGQQFekbNak00xi54qZUGBlk86Iry&q=Melbourne",
        "Version":1,
        "Key":"26216",
        "Type":"City",
        "Rank":11,
        "LocalizedName":"Melbourne",
        "EnglishName":"Melbourne",
        "PrimaryPostalCode":"",
        "Region": {
                "ID":"OCN",
                "LocalizedName":"Oceania",
                "EnglishName":"Oceania"
            },
            "Country": {
                "ID":"AU",
                "LocalizedName":"Australia",
                "EnglishName":"Australia" },
            "AdministrativeArea": {
                "ID":"VIC",
                "LocalizedName":"Victoria",
                "EnglishName":"Victoria",
                "Level":1,
                "LocalizedType":"State",
                "EnglishType":"State",
                "CountryID":"AU" },
            "TimeZone": {
                "Code":"AEST",
                "Name":"Australia/Melbourne",
                "GmtOffset":10.0,
                "IsDaylightSaving":false,
                "NextOffsetChange":"2018-10-06T16:00:00Z" },
            "GeoPosition": {
                "Latitude":-37.812,
                "Longitude":144.967,
                "Elevation": {
                    "Metric":{ 
                        "Value":75.0,
                        "Unit":"m",
                        "UnitType":5 },
                        "Imperial": {
                            "Value":246.0,
                            "Unit":"ft",
                            "UnitType":0}}},
            "IsAlias":false,
            "SupplementalAdminAreas":[],
            "DataSets":[]
    }
]
